{
  "name": "gru_both_small_batch",

  "model": "gru",
  "dropout_rate": 0.25,

  "dataset": "clean_one",

  "scheduler": "exponential",
  "scheduler_gamma": 0.985,

  "dataloader_workers": 0,

  "epochs": 300,
  "batch_size": 32,

  "optimizer": "Adam",
  "lr": 0.001,
  "decay": 1e-5,

  "checkpoint_epochs": 5,

  "resample_points": 1000,

  "aug_cut": false,
  "aug_reverse": false,
  "aug_shift": false,
  "aug_noise": false
}
